…
    ## See spec(...) for full column specifications.

``` r
transit_data
```

    ## # A tibble: 1,868 x 19
    ##    line  station_name station_latitude station_longitu~ route1 route2
    ##    <chr> <chr>                   <dbl>            <dbl> <chr>  <chr> 
    ##  1 4 Av~ 25th St                  40.7            -74.0 R      <NA>  
    ##  2 4 Av~ 25th St                  40.7            -74.0 R      <NA>  
    ##  3 4 Av~ 36th St                  40.7            -74.0 N      R     
    ##  4 4 Av~ 36th St                  40.7            -74.0 N      R     
    ##  5 4 Av~ 36th St                  40.7            -74.0 N      R     
    ##  6 4 Av~ 45th St                  40.6            -74.0 R      <NA>  
    ##  7 4 Av~ 45th St                  40.6            -74.0 R      <NA>  
    ##  8 4 Av~ 45th St                  40.6            -74.0 R      <NA>  
    ##  9 4 Av~ 45th St                  40.6            -74.0 R      <NA>  
    ## 10 4 Av~ 53rd St                  40.6            -74.0 R      <NA>  
    ## # ... with 1,858 more rows, and 13 more variables: route3 <chr>,
    ## #   route4 <chr>, route5 <chr>, route6 <chr>, route7 <chr>, route8 <int>,
    ## #   route9 <int>, route10 <int>, route11 <int>, entry <lgl>,
    ## #   vending <chr>, entrance_type <chr>, ada <lgl>
…
-   Rounds the number of sports balls to the nearest integer and converts the result to an integer variable.

``` r
trash_data = 
  readxl::read_excel("./HealthyHarborWaterWheelTotals2018-7-28.xlsx", sheet = 1, range = cellranger::cell_cols("A:N")) %>% 
  janitor::clean_names() %>%
  dplyr::filter(., !is.na(dumpster)) %>%
  mutate(sports_balls = round(sports_balls)) %>%
  mutate(sports_balls = as.integer(.$sports_balls))

trash_data
```

    ## # A tibble: 285 x 14
    ##    dumpster month  year date                weight_tons volume_cubic_ya~
    ##       <dbl> <chr> <dbl> <dttm>                    <dbl>            <dbl>
    ##  1        1 May    2014 2014-05-16 00:00:00        4.31               18
    ##  2        2 May    2014 2014-05-16 00:00:00        2.74               13
    ##  3        3 May    2014 2014-05-16 00:00:00        3.45               15
    ##  4        4 May    2014 2014-05-17 00:00:00        3.1                15
    ##  5        5 May    2014 2014-05-17 00:00:00        4.06               18
    ##  6        6 May    2014 2014-05-20 00:00:00        2.71               13
    ##  7        7 May    2014 2014-05-21 00:00:00        1.91                8
    ##  8        8 May    2014 2014-05-28 00:00:00        3.7                16
    ##  9        9 June   2014 2014-06-05 00:00:00        2.52               14
    ## 10       10 June   2014 2014-06-11 00:00:00        3.76               18
    ## # ... with 275 more rows, and 8 more variables: plastic_bottles <dbl>,
    ## #   polystyrene <dbl>, cigarette_butts <dbl>, glass_bottles <dbl>,
    ## #   grocery_bags <dbl>, chip_bags <dbl>, sports_balls <int>,
    ## #   homes_powered <dbl>
…
``` r
formated_brfss_smart2010 = brfss_smart2010 %>%
  janitor::clean_names() %>%
  dplyr::rename(., state = locationabbr, county = locationdesc) %>%
  dplyr::filter(., topic == "Overall Health") %>%
  select(., -class, -topic, -question, -sample_size, -(confidence_limit_low : geo_location)) %>%
  spread(., key = response, value = data_value) %>%
  janitor::clean_names() %>%
  select(., year:county, excellent, very_good, good, fair, poor) %>%
  mutate(., excellent_or_very_good = (excellent + very_good) / (excellent + very_good + good + fair + poor))

formated_brfss_smart2010
```

    ## # A tibble: 2,125 x 9
    ##     year state county excellent very_good  good  fair  poor
    ##    <int> <chr> <chr>      <dbl>     <dbl> <dbl> <dbl> <dbl>
    ##  1  2002 AK    AK - ~      27.9      33.7  23.8   8.6   5.9
    ##  2  2002 AL    AL - ~      18.5      30.9  32.7  12.1   5.9
    ##  3  2002 AR    AR - ~      24.1      29.3  29.9  12.5   4.2
    ##  4  2002 AZ    AZ - ~      21.6      36.6  26.9  10.3   4.6
    ##  5  2002 AZ    AZ - ~      26.6      30.1  31.9   7.5   3.9
    ##  6  2002 CA    CA - ~      22.7      29.8  28.7  14.3   4.5
    ##  7  2002 CO    CO - ~      21.2      31.2  29    14.4   4.2
    ##  8  2002 CO    CO - ~      25.5      35.2  29.3   8     2.1
    ##  9  2002 CO    CO - ~      22.2      27.1  36.6  11.1   3  
    ## 10  2002 CO    CO - ~      23.4      36.6  26.3  11.4   2.4
    ## # ... with 2,115 more rows, and 1 more variable:
    ## #   excellent_or_very_good <dbl>

### Do or answer the questions

``` r
distinct(formated_brfss_smart2010, county)
```

    ## # A tibble: 404 x 1
    ##    county                     
    ##    <chr>                      
    ##  1 AK - Anchorage Municipality
    ##  2 AL - Jefferson County      
    ##  3 AR - Pulaski County        
    ##  4 AZ - Maricopa County       
    ##  5 AZ - Pima County           
    ##  6 CA - Los Angeles County    
    ##  7 CO - Adams County          
    ##  8 CO - Arapahoe County       
    ##  9 CO - Denver County         
    ## 10 CO - Jefferson County      
    ## # ... with 394 more rows

``` r
distinct(formated_brfss_smart2010, state)
```

    ## # A tibble: 51 x 1
    ##    state
    ##    <chr>
    ##  1 AK   
    ##  2 AL   
    ##  3 AR   
    ##  4 AZ   
    ##  5 CA   
    ##  6 CO   
    ##  7 CT   
    ##  8 DC   
    ##  9 DE   
    ## 10 FL   
    ## # ... with 41 more rows

``` r
formated_brfss_smart2010 %>%
  count(state)
```

    ## # A tibble: 51 x 2
    ##    state     n
    ##    <chr> <int>
    ##  1 AK       11
    ##  2 AL       18
    ##  3 AR       21
    ##  4 AZ       32
    ##  5 CA       52
    ##  6 CO       59
    ##  7 CT       47
    ##  8 DC        9
    ##  9 DE       27
    ## 10 FL      122
    ## # ... with 41 more rows
…
